<?xml version="1.0" encoding="utf-8"?>
<!-- Generator: Adobe Illustrator 24.0.0, SVG Export Plug-In . SVG Version: 6.00 Build 0)  -->
<svg version="1.1" id="Capa_1" xmlns="http://www.w3.org/2000/svg" xmlns:xlink="http://www.w3.org/1999/xlink" x="0px" y="0px"
	 viewBox="0 0 261.2 82.1" style="enable-background:new 0 0 261.2 82.1;" xml:space="preserve">
<style type="text/css">
	.st0{fill:#FBBB34;}
	.st1{fill:#0071CE;}
</style>
<g>
	<g>
		<g>
			<path class="st0" d="M244.3,29c0.4-1,1.2-1.7,2-1.6l12,3.1c1.1,0.4,1.6,2.1,1,3.8s-2,2.7-3.2,2.3l-11.2-5.1
				C244.1,31.1,243.9,30.1,244.3,29L244.3,29L244.3,29z"/>
		</g>
		<g>
			<path class="st0" d="M242.9,21.5c0.7,0.8,1.7,1.2,2.4,0.8l10.1-7.2c0.9-0.8,0.8-2.5-0.4-3.9c-1.2-1.4-2.9-1.8-3.8-1l-8.7,8.8
				C242,19.6,242.2,20.6,242.9,21.5L242.9,21.5L242.9,21.5z"/>
		</g>
		<g>
			<path class="st0" d="M235.6,18.9c1.1-0.2,1.9-0.9,1.9-1.7l-1.2-12.3c-0.2-1.2-1.8-1.9-3.6-1.6s-3,1.6-2.8,2.8l3.3,11.9
				C233.6,18.7,234.6,19.1,235.6,18.9L235.6,18.9z"/>
		</g>
	</g>
	<g>
		<path class="st1" d="M19.4,39.1c2.8,0.9,6.1,3,6.1,7.5c0,5.4-4.6,8.9-10.1,8.9H4c-0.5,0-0.9-0.4-0.9-0.9V24.1
			c0-0.5,0.4-0.9,0.9-0.9h10.8c5.4,0,9.9,3.7,9.9,8.6C24.7,35.5,22,38,19.4,39.1L19.4,39.1z M14.1,36.3c1.8,0,3-1.5,3-3.3
			s-1.2-3.1-3-3.1h-3.8v6.5h3.8V36.3z M14.2,49c2.3,0,3.6-1.2,3.6-3.3c0-1.8-1.2-3.3-3.5-3.3h-4V49H14.2z"/>
		<path class="st1" d="M30.9,24.1c0-0.5,0.4-0.9,0.9-0.9h5.7c0.5,0,0.9,0.4,0.9,0.9v19.2c0,3.4,2.4,5.3,5.7,5.3s5.8-1.9,5.8-5.3
			V24.1c0-0.5,0.4-0.9,0.9-0.9h5.7c0.5,0,0.9,0.4,0.9,0.9v19.6c0,7-5.9,12.3-13.2,12.3c-7.2,0-13.1-5.3-13.1-12.3V24.1H30.9z"/>
		<path class="st1" d="M70.8,40L60.6,24.6c-0.4-0.6,0-1.3,0.7-1.3h6c0.4,0,0.6,0.2,0.7,0.4l6.4,9.5l6.4-9.5c0.1-0.2,0.3-0.4,0.7-0.4
			h6c0.7,0,1.1,0.7,0.7,1.3L78.1,39.9v14.7c0,0.5-0.4,0.9-0.9,0.9h-5.5c-0.5,0-0.9-0.4-0.9-0.9C70.8,54.6,70.8,40,70.8,40z"/>
		<path class="st1" d="M90.4,52.5c-0.4-0.4-0.5-0.8-0.2-1.4l2.1-3.7c0.4-0.6,1.1-0.6,1.6-0.3c1.3,0.9,3.6,2.5,6.6,2.5
			c1.8,0,3.2-1.2,3.2-2.8c0-1.9-1.7-3.2-4.8-4.7c-4.5-2.2-9-4.7-9-10.2c0-4.6,3.6-9.2,10.7-9.2c4.8,0,8.5,2.4,9.9,3.5
			c0.6,0.3,0.5,1.2,0.3,1.5l-2.4,3.6c-0.3,0.5-1.1,0.9-2,0.3c-1.1-0.7-3.8-2.5-6.2-2.5c-1.9,0-2.8,1.2-2.8,2.5c0,1.5,1.8,2.7,5,4.3
			c4.1,2,9.3,4.2,9.3,10.5c0,4.8-4.1,9.6-10.9,9.6C94.8,56,91.5,53.5,90.4,52.5z"/>
		<path class="st1" d="M120.7,23.5c0-0.4,0.5-0.7,0.8-0.7h0.7c0.2,0,0.6,0.2,0.8,0.5l10.7,19.9h0.1l10.7-19.9
			c0.1-0.3,0.6-0.5,0.8-0.5h0.7c0.4,0,0.8,0.3,0.8,0.7l5.2,31c0.1,0.6-0.3,1-0.9,1h-5.4c-0.4,0-0.8-0.4-0.9-0.7l-2.1-14.3h-0.1
			l-7.8,15c-0.1,0.3-0.6,0.5-0.8,0.5h-0.8c-0.3,0-0.6-0.2-0.8-0.5l-7.8-15h-0.1l-2,14.3c0,0.4-0.4,0.7-0.9,0.7h-5.4
			c-0.6,0-1-0.4-0.9-1L120.7,23.5z"/>
		<path class="st1" d="M154,54.4l14.4-31.1c0.1-0.3,0.5-0.5,0.8-0.5h0.5c0.3,0,0.6,0.2,0.8,0.5L185,54.4c0.3,0.6-0.1,1.2-0.8,1.2
			h-5.1c-0.8,0-1.2-0.3-1.6-1.2l-1.7-3.6h-12.6l-1.7,3.7c-0.2,0.6-0.7,1.1-1.7,1.1h-5.1C154.1,55.6,153.8,55,154,54.4z M173,44.5
			l-3.5-7.6l0,0l-3.5,7.6H173z"/>
		<path class="st1" d="M188.6,24.1c0-0.5,0.4-0.9,0.9-0.9h13.8c5.9,0,10.1,4.5,10.1,10c0,4.2-2.5,7.7-6.8,9.3l6.3,11.7
			c0.3,0.6,0,1.3-0.8,1.3H206c-0.4,0-0.6-0.2-0.7-0.4L199,42.9h-3.2v11.8c0,0.5-0.4,0.9-0.9,0.9h-5.5c-0.5,0-0.9-0.4-0.9-0.9
			L188.6,24.1L188.6,24.1z M202.7,37c1.9,0,3.5-1.5,3.5-3.7s-1.6-3.5-3.5-3.5h-6.8V37H202.7z"/>
		<path class="st1" d="M224.2,30h-6.6c-0.5,0-0.9-0.4-0.9-0.9v-5c0-0.5,0.4-0.9,0.9-0.9h20.5c0.5,0,0.9,0.4,0.9,0.9v5
			c0,0.5-0.4,0.9-0.9,0.9h-6.6v24.7c0,0.5-0.4,0.9-0.9,0.9h-5.5c-0.5,0-0.9-0.4-0.9-0.9V30z"/>
	</g>
	<g>
		<path class="st1" d="M76.5,64.2c1.5,0,2.7,0.6,3.7,1.7c0.2,0.2,0.2,0.5-0.1,0.7l-0.4,0.3c-0.3,0.3-0.5,0.1-0.7-0.2
			c-0.7-0.8-1.5-1.1-2.5-1.1c-1.9,0-3.5,1.7-3.5,3.8c0,2.1,1.5,3.8,3.4,3.8c1.5,0,2.2-0.8,2.8-1.4c0.3-0.3,0.6-0.2,0.9,0l0.1,0.1
			c0.2,0.2,0.3,0.4,0.1,0.7c-0.8,1.1-2.1,2-3.8,2c-3,0-5.1-2.2-5.1-5.3C71.4,66.5,73.6,64.2,76.5,64.2z"/>
		<path class="st1" d="M87.3,64.2c2.8,0,5.1,2.4,5.1,5.3s-2.3,5.3-5.1,5.3c-2.8,0-5.1-2.4-5.1-5.3C82.2,66.6,84.5,64.2,87.3,64.2z
			 M87.3,73.3c2,0,3.5-1.8,3.5-3.9s-1.5-3.8-3.5-3.8s-3.5,1.7-3.5,3.8C83.8,71.5,85.3,73.3,87.3,73.3z"/>
		<path class="st1" d="M95.2,64.7c0-0.2,0.2-0.4,0.4-0.4c0.6,0,1,0.5,1.1,1.1c0.6-0.5,1.8-1.3,3.4-1.3c2.9,0,3.7,1.9,3.7,4.5V74
			c0,0.3-0.2,0.5-0.5,0.5h-0.7c-0.3,0-0.5-0.2-0.5-0.5v-5.6c0-1.9-0.7-2.8-2.1-2.8c-1.9,0-3.1,1.4-3.1,1.4v7c0,0.3-0.2,0.5-0.5,0.5
			h-0.7c-0.3,0-0.5-0.2-0.5-0.5C95.2,74,95.2,64.7,95.2,64.7z"/>
		<path class="st1" d="M106.2,65.8c-0.3,0-0.5-0.2-0.5-0.5v-0.4c0-0.3,0.2-0.5,0.5-0.5h1.3v-2.8c0-0.3,0.2-0.5,0.5-0.5h0.7
			c0.3,0,0.5,0.2,0.5,0.5v2.9h3c0.3,0,0.5,0.2,0.5,0.5v0.4c0,0.3-0.2,0.5-0.5,0.5h-3v6c0,1.1,0.7,1.5,1.4,1.5c0.6,0,1.1-0.2,1.6-0.4
			c0.4-0.2,0.5,0,0.6,0.2l0.2,0.4c0.1,0.3,0.1,0.5-0.2,0.7c-0.5,0.3-1.4,0.6-2.4,0.6c-1.8,0-2.8-1.4-2.8-3v-6L106.2,65.8L106.2,65.8
			z"/>
		<path class="st1" d="M119.5,64.2c2.7,0,4.6,2,4.6,4.6c0,0.2,0,0.4,0,0.6c0,0.3-0.2,0.4-0.5,0.4h-7.4c0,1.7,1.5,3.5,3.3,3.5
			c1.3,0,2.2-0.5,2.7-0.8c0.4-0.2,0.5-0.3,0.8,0.1l0.3,0.4c0.2,0.3,0.3,0.4-0.1,0.7c-0.6,0.5-2,1.2-3.7,1.2c-3.1,0-4.9-2.4-4.9-5.3
			C114.5,66.6,116.4,64.2,119.5,64.2z M122.4,68.5c0-1.5-1.2-2.9-3-2.9c-1.7,0-3.1,1.3-3.3,2.9H122.4z"/>
		<path class="st1" d="M126.7,64.7c0-0.2,0.2-0.4,0.4-0.4c0.6,0,1,0.5,1.1,1.1c0.6-0.5,1.8-1.3,3.4-1.3c2.9,0,3.7,1.9,3.7,4.5V74
			c0,0.3-0.2,0.5-0.5,0.5h-0.7c-0.3,0-0.5-0.2-0.5-0.5v-5.6c0-1.9-0.7-2.8-2.1-2.8c-1.9,0-3.1,1.4-3.1,1.4v7c0,0.3-0.2,0.5-0.5,0.5
			h-0.7c-0.3,0-0.5-0.2-0.5-0.5L126.7,64.7L126.7,64.7z"/>
		<path class="st1" d="M137.7,65.8c-0.3,0-0.5-0.2-0.5-0.5v-0.4c0-0.3,0.2-0.5,0.5-0.5h1.3v-2.8c0-0.3,0.2-0.5,0.5-0.5h0.7
			c0.3,0,0.5,0.2,0.5,0.5v2.9h3c0.3,0,0.5,0.2,0.5,0.5v0.4c0,0.3-0.2,0.5-0.5,0.5h-3v6c0,1.1,0.7,1.5,1.4,1.5c0.6,0,1.1-0.2,1.6-0.4
			c0.4-0.2,0.5,0,0.6,0.2l0.2,0.4c0.1,0.3,0.1,0.5-0.2,0.7c-0.5,0.3-1.4,0.6-2.4,0.6c-1.8,0-2.8-1.4-2.8-3v-6L137.7,65.8L137.7,65.8
			z"/>
		<path class="st1" d="M152,64.7c0-0.2,0.2-0.4,0.4-0.4c0.6,0,1,0.5,1.1,1.1c0.6-0.6,1.7-1.3,3.1-1.3c1.5,0,2.3,0.5,3,1.6
			c0.1-0.1,1.6-1.6,3.6-1.6c2.9,0,3.6,1.9,3.6,4.5V74c0,0.3-0.2,0.5-0.5,0.5h-0.7c-0.3,0-0.5-0.2-0.5-0.5v-5.4c0-1.9-0.6-3-2.1-3
			c-1.6,0-2.6,1.1-2.9,1.4c0.1,0.4,0.1,1.1,0.1,1.7V74c0,0.3-0.2,0.5-0.5,0.5H159c-0.2,0-0.5-0.2-0.5-0.5v-5.4c0-1.9-0.6-3-2.3-3
			c-1.8,0-2.7,1.4-2.7,1.4v7c0,0.3-0.2,0.5-0.5,0.5h-0.7c-0.3,0-0.5-0.2-0.5-0.5v-9.3H152z"/>
		<path class="st1" d="M173.4,68.1c1.1,0,2.2,0.3,2.2,0.3c0-1.9-0.9-2.8-2.3-2.8c-1.1,0-1.9,0.4-2.3,0.6c-0.3,0.1-0.4,0-0.5-0.3
			l-0.2-0.6c-0.1-0.3,0.1-0.4,0.3-0.5c0.5-0.2,1.4-0.7,2.8-0.7c2.6,0,3.8,1.5,3.8,4.3v5.8c0,0.2-0.2,0.4-0.4,0.4
			c-0.7,0-1-0.5-1.1-1.2c-0.5,0.5-1.6,1.3-3.2,1.3c-1.8,0-3.1-1.3-3.1-3.3C169.3,69.5,170.8,68.1,173.4,68.1z M172.7,73.3
			c1.2,0,2.3-0.7,2.8-1.4v-2.1c-0.3-0.2-1.1-0.4-2.1-0.4c-1.4,0-2.5,0.7-2.5,2C170.9,72.5,171.6,73.3,172.7,73.3z"/>
		<path class="st1" d="M180.4,64.7c0-0.2,0.2-0.4,0.4-0.4c0.6,0,1,0.5,1.1,1.1c0.6-0.5,1.8-1.3,3.4-1.3c2.9,0,3.7,1.9,3.7,4.5V74
			c0,0.3-0.2,0.5-0.5,0.5h-0.7c-0.3,0-0.5-0.2-0.5-0.5v-5.6c0-1.9-0.7-2.8-2.1-2.8c-1.9,0-3.1,1.4-3.1,1.4v7c0,0.3-0.2,0.5-0.5,0.5
			h-0.7c-0.3,0-0.5-0.2-0.5-0.5L180.4,64.7L180.4,64.7z"/>
		<path class="st1" d="M195.5,68.1c1.1,0,2.2,0.3,2.2,0.3c0-1.9-0.9-2.8-2.3-2.8c-1.1,0-1.9,0.4-2.3,0.6c-0.3,0.1-0.4,0-0.5-0.3
			l-0.2-0.6c-0.1-0.3,0.1-0.4,0.3-0.5c0.5-0.2,1.4-0.7,2.8-0.7c2.6,0,3.8,1.5,3.8,4.3v5.8c0,0.2-0.2,0.4-0.4,0.4
			c-0.7,0-1-0.5-1.1-1.2c-0.5,0.5-1.6,1.3-3.2,1.3c-1.8,0-3.1-1.3-3.1-3.3C191.5,69.5,192.9,68.1,195.5,68.1z M194.9,73.3
			c1.2,0,2.3-0.7,2.8-1.4v-2.1c-0.3-0.2-1.1-0.4-2.1-0.4c-1.4,0-2.5,0.7-2.5,2C193.1,72.5,193.8,73.3,194.9,73.3z"/>
		<path class="st1" d="M211.2,74.6c0,3.5-2.1,4.7-4.4,4.7c-1.6,0-3-0.8-3.5-1.3c-0.2-0.2-0.2-0.4-0.1-0.6l0.4-0.6
			c0.2-0.2,0.4-0.2,0.7,0c0.5,0.5,1.4,1.1,2.5,1.1c1.6,0,2.8-0.9,2.8-3.2V74c0,0-1.1,0.9-2.8,0.9c-2.8,0-4.8-2.3-4.8-5.3
			c0-2.9,2-5.3,4.7-5.3c1.3,0,2.4,0.6,3,1.1c0.1-0.5,0.5-0.9,1-0.9c0.2,0,0.4,0.2,0.4,0.4v9.7H211.2z M207,73.3
			c1.4,0,2.6-0.8,2.6-0.8V67c0,0-1-1.2-2.7-1.2c-2,0-3.3,1.8-3.3,3.8C203.6,71.6,205,73.3,207,73.3z"/>
		<path class="st1" d="M218.8,64.2c2.7,0,4.6,2,4.6,4.6c0,0.2,0,0.4,0,0.6c0,0.3-0.2,0.4-0.5,0.4h-7.4c0,1.7,1.5,3.5,3.3,3.5
			c1.3,0,2.2-0.5,2.7-0.8c0.4-0.2,0.5-0.3,0.8,0.1l0.3,0.4c0.2,0.3,0.3,0.4-0.1,0.7c-0.6,0.5-2,1.2-3.7,1.2c-3.1,0-4.9-2.4-4.9-5.3
			C213.9,66.6,215.8,64.2,218.8,64.2z M221.8,68.5c0-1.5-1.2-2.9-3-2.9c-1.7,0-3.1,1.3-3.3,2.9H221.8z"/>
		<path class="st1" d="M226.1,64.7c0-0.2,0.2-0.4,0.4-0.4c0.6,0,1,0.5,1.1,1.1c0.5-0.6,1.5-1.3,3.1-1.3c0.8,0,2,0.1,1.8,0.8
			l-0.3,0.8c-0.1,0.3-0.4,0.4-0.6,0.2c-0.2-0.1-0.6-0.3-1.1-0.3c-2,0-2.7,1.3-2.7,1.3v7c0,0.3-0.2,0.5-0.5,0.5h-0.7
			c-0.3,0-0.5-0.2-0.5-0.5V64.7z"/>
	</g>
</g>
</svg>
