<?xml version="1.0" encoding="utf-8"?>
<!-- Generator: Adobe Illustrator 24.0.1, SVG Export Plug-In . SVG Version: 6.00 Build 0)  -->
<svg version="1.1" id="Capa_1" xmlns="http://www.w3.org/2000/svg" xmlns:xlink="http://www.w3.org/1999/xlink" x="0px" y="0px"
	 viewBox="0 0 38 62" style="enable-background:new 0 0 38 62;" xml:space="preserve">
<style type="text/css">
	.st0{fill-rule:evenodd;clip-rule:evenodd;fill:#EEEEEE;}
	.st1{fill-rule:evenodd;clip-rule:evenodd;fill:#D9EFFF;}
</style>
<title>Group 48 Copy 3</title>
<g id="UI-Elegida">
	<g id="Artboard" transform="translate(-204.000000, -37.000000)">
		<g id="Group-32" transform="translate(204.000000, 37.000000)">
			<path id="Rectangle" class="st0" d="M2,0h34c1.1,0,2,0.9,2,2v15c0,1.1-0.9,2-2,2H2c-1.1,0-2-0.9-2-2V2C0,0.9,0.9,0,2,0z"/>
			<path id="Rectangle-Copy-15" class="st0" d="M2,21h14c1.1,0,2,0.9,2,2v18c0,1.1-0.9,2-2,2H2c-1.1,0-2-0.9-2-2V23
				C0,21.9,0.9,21,2,21z"/>
			<path id="Rectangle-Copy-18" class="st0" d="M22,21h14c1.1,0,2,0.9,2,2v18c0,1.1-0.9,2-2,2H22c-1.1,0-2-0.9-2-2V23
				C20,21.9,20.9,21,22,21z"/>
			<path id="Rectangle-Copy-17" class="st1" d="M2,45h34c1.1,0,2,0.9,2,2v13c0,1.1-0.9,2-2,2H2c-1.1,0-2-0.9-2-2V47
				C0,45.9,0.9,45,2,45z"/>
		</g>
	</g>
</g>
</svg>
